<?xml version="1.0" encoding="UTF-8" standalone="no"?>
<svg width="42px" height="42px" viewBox="0 0 42 42" version="1.1" xmlns="http://www.w3.org/2000/svg" xmlns:xlink="http://www.w3.org/1999/xlink">
    <!-- Generator: Sketch 47.1 (45422) - http://www.bohemiancoding.com/sketch -->
    <title>quote-marks</title>
    <desc>Created with Sketch.</desc>
    <defs></defs>
    <g id="Symbols" stroke="none" stroke-width="1" fill="none" fill-rule="evenodd">
        <g id="quote-marks">
            <g id="Group">
                <g id="Group-4">
                    <circle id="Oval" fill="#BEBEBE" cx="21" cy="21" r="21"></circle>
                    <text id="“" font-family="Poppins-SemiBold, Poppins" font-size="40" font-weight="500" fill="#F0F0F0">
                        <tspan x="14" y="48">“</tspan>
                    </text>
                </g>
            </g>
        </g>
    </g>
</svg>