<?xml version="1.0" encoding="UTF-8" standalone="no"?>
<svg width="16px" height="18px" viewBox="0 0 16 18" version="1.1" xmlns="http://www.w3.org/2000/svg" xmlns:xlink="http://www.w3.org/1999/xlink">
    <!-- Generator: Sketch 47.1 (45422) - http://www.bohemiancoding.com/sketch -->
    <title>Page 1</title>
    <desc>Created with Sketch.</desc>
    <defs>
        <polygon id="path-1" points="0 3.62764325e-15 0 17.2857143 16.005291 17.2857143 16.005291 0"></polygon>
    </defs>
    <g id="Symbols" stroke="none" stroke-width="1" fill="none" fill-rule="evenodd">
        <g id="source-logo-ongrey" transform="translate(-8.000000, -8.000000)">
            <g id="source-logo" transform="translate(0.000000, 0.176471)">
                <g id="Group">
                    <g id="Page-1" transform="translate(8.000000, 8.000000)">
                        <mask id="mask-2" fill="white">
                            <use xlink:href="#path-1"></use>
                        </mask>
                        <g id="Clip-2"></g>
                        <path d="M6.92838543,11.5528254 C4.43638246,11.5528254 2.40878443,9.50682377 2.40878443,6.99188827 C2.40878443,4.47695277 4.43638246,2.43095115 6.92838543,2.43095115 C9.42038839,2.43095115 11.4474805,4.47695277 11.4474805,6.99188827 C11.4474805,9.50682377 9.42038839,11.5528254 6.92838543,11.5528254 M15.8676746,15.6535079 L12.3568137,11.3294628 C13.3250828,10.0967564 13.8565179,8.56334005 13.8565179,6.99188827 C13.8565179,3.13652177 10.7485966,0 6.92838543,0 C3.10817422,0 0,3.13652177 0,6.99188827 C0,10.8469995 3.10817422,13.9837765 6.92838543,13.9837765 C8.22244624,13.9837765 9.47780665,13.613888 10.5844361,12.9152098 C10.7329141,12.8164197 10.967899,12.6530459 11.1697482,12.4804823 C11.4168743,12.2688621 11.4735338,12.2132129 11.4735338,12.2132129 C11.4735338,12.2132129 11.4310392,12.5769749 11.1014533,13.2493602 L14.1767448,17.0641386 C14.2791871,17.1897322 14.4246298,17.2673347 14.586008,17.282651 C14.6054847,17.2846932 14.6252143,17.2857143 14.644691,17.2857143 C14.7850748,17.2857143 14.919388,17.2372127 15.0289127,17.1460807 L15.7859737,16.5124967 C16.0427117,16.2983239 16.0793886,15.9131191 15.8676746,15.6535079" id="Fill-1" fill="#BEBEBE" mask="url(#mask-2)"></path>
                    </g>
                </g>
            </g>
        </g>
    </g>
</svg>