<?xml version="1.0" encoding="UTF-8" standalone="no"?>
<svg width="51px" height="51px" viewBox="0 0 51 51" version="1.1" xmlns="http://www.w3.org/2000/svg" xmlns:xlink="http://www.w3.org/1999/xlink">
    <!-- Generator: Sketch 47.1 (45422) - http://www.bohemiancoding.com/sketch -->
    <title>Group 14</title>
    <desc>Created with Sketch.</desc>
    <defs></defs>
    <g id="Symbols" stroke="none" stroke-width="1" fill="none" fill-rule="evenodd">
        <g id="stacks-vp-2">
            <g id="Group-14">
                <circle id="Oval-4" fill-opacity="0.75999999" fill="#F2F2F2" cx="25.5" cy="25.5" r="25.5"></circle>
                <g id="Page-1" transform="translate(7.727273, 12.363636)">
                    <polygon id="Fill-1" fill-opacity="0.87" fill="#406BE5" points="0 19.8664346 19.8394689 27.8181818 35.5454545 14.6198838 16.3455145 6.18181818"></polygon>
                    <polygon id="Fill-2" fill-opacity="0.87" fill="#406BE5" points="0 16.7755255 19.8394689 24.7272727 35.5454545 11.5289747 16.3455145 3.09090909"></polygon>
                    <polygon id="Fill-3" fill-opacity="0.87" fill="#406BE5" points="16.3455145 0 0 13.6843631 19.8394689 21.6363636 35.5454545 8.43831001"></polygon>
                    <g id="Group-10" transform="translate(4.636364, 6.181818)" fill="#29479D">
                        <path d="M0.965909091,1.54545455 C0.432340909,1.54545455 0,1.19958182 0,0.772727273 C0,0.345872727 0.432340909,0 0.965909091,0 L17.5795455,0 C18.1131136,0 18.5454545,0.345872727 18.5454545,0.772727273 C18.5454545,1.19958182 18.1131136,1.54545455 17.5795455,1.54545455 L0.965909091,1.54545455 Z" id="Fill-4"></path>
                        <rect id="Rectangle-6" x="0" y="0" width="18.5454545" height="3.09090909"></rect>
                        <rect id="Rectangle-6-Copy" x="0" y="6.18181818" width="13.9090909" height="3.09090909"></rect>
                        <rect id="Rectangle-6-Copy-2" x="0" y="12.3636364" width="9.27272727" height="3.09090909"></rect>
                    </g>
                </g>
            </g>
        </g>
    </g>
</svg>