<?xml version="1.0" encoding="UTF-8" standalone="no"?>
<svg width="27px" height="21px" viewBox="0 0 27 21" version="1.1" xmlns="http://www.w3.org/2000/svg" xmlns:xlink="http://www.w3.org/1999/xlink">
    <!-- Generator: Sketch 47.1 (45422) - http://www.bohemiancoding.com/sketch -->
    <title>Fill 1</title>
    <desc>Created with Sketch.</desc>
    <defs></defs>
    <g id="Symbols" stroke="none" stroke-width="1" fill="none" fill-rule="evenodd">
        <g id="stacks-logo" transform="translate(-2.000000, -10.000000)" fill="#556880">
            <g id="Group-3">
                <path d="M25.8384286,23.9993453 L22.2866429,23.9993453 C22.0548929,23.9993453 21.8388929,24.1065676 21.7119286,24.2981041 L19.5888929,27.5058632 C19.4616071,27.6977178 19.2456071,27.8173486 19.0141786,27.8173486 L16.1296786,27.8173486 L14.8439643,27.8173486 L11.9597857,27.8173486 C11.7283571,27.8173486 11.5120357,27.6935817 11.3850714,27.501727 L9.26203571,24.3022403 C9.13475,24.1107038 8.91875,23.9993453 8.68732143,23.9993453 L5.13521429,23.9993453 C4.67203571,23.9993453 4.34160714,23.5465938 4.47885714,23.1087961 L7.94385714,12.0652216 C8.03321429,11.7807804 8.29935714,11.5908347 8.60053571,11.5908347 L10.3327143,11.5908347 L9.24564286,16.7095044 C9.19453571,16.950675 9.47707143,17.1186671 9.67153571,16.9646743 L11.6023571,15.4333368 C11.7081071,15.3496589 11.8604643,15.3569768 11.95625,15.4517905 L13.5723929,17.0512157 C13.7263571,17.2036177 13.9899286,17.1259849 14.0227143,16.9128131 L14.8439643,11.5908347 L16.1296786,11.5908347 L22.3734286,11.5908347 C22.6746071,11.5908347 22.9404286,11.776326 23.0297857,12.0610854 L26.4947857,23.1129322 C26.6323571,23.55073 26.3016071,23.9993453 25.8384286,23.9993453 M28.9607857,23.5634566 L24.7333571,10.4651601 C24.6423929,10.1832642 24.3743214,10 24.0753929,10 L16.1296786,10 L14.8439643,10 L6.89857143,10 C6.59932143,10 6.33446429,10.1832642 6.24382143,10.4651601 L2.02603571,23.5675928 C2.0045,23.634726 2,23.7002684 2,23.7705833 L2,29.9837473 C2,30.3595025 2.29442857,30.6808511 2.67435714,30.6808511 L14.8439643,30.6808511 L16.1296786,30.6808511 L28.2996071,30.6808511 C28.6792143,30.6808511 29,30.3595025 29,29.9837473 L29,23.7705833 C29,23.7002684 28.9826429,23.6305899 28.9607857,23.5634566" id="Fill-1"></path>
            </g>
        </g>
    </g>
</svg>